results/Osciloscopio/9-22/tek0017ALL.csv

Model,DPO3034
Firmware Version,2.16

Point Format,Y,
Horizontal Units,S,
Horizontal Scale,0.001,
Sample Interval,1e-06,
Record Length,10000,
Gating,0.0% to 100.0%,0.0% to 100.0%
Probe Attenuation,10,10
Vertical Units,V,V
Vertical Offset,0,0
Vertical Scale,1,1
Label,,
TIME,CH1,CH2
-4.4400e-04,0.02,0
-4.4300e-04,0.1,-0.04
-4.4200e-04,0.06,-0.04
-4.4100e-04,0.06,0.04
-4.4000e-04,0.06,0
-4.3900e-04,0.06,0
-4.3800e-04,0.02,0
-4.3700e-04,0.06,-0.04
-4.3600e-04,0.06,-0.04
-4.3500e-04,0.1,0
-4.3400e-04,0.1,-0.04
-4.3300e-04,0.1,0
-4.3200e-04,0.1,0
-4.3100e-04,0.02,0
-4.3000e-04,0.1,0
-4.2900e-04,0.14,0.04
-4.2800e-04,0.1,0
-4.2700e-04,0.1,0
-4.2600e-04,0.1,0
-4.2500e-04,0.02,-0.04
-4.2400e-04,0.1,0
-4.2300e-04,0.1,0.08
-4.2200e-04,0.02,0
-4.2100e-04,0.06,0
-4.2000e-04,0.06,-0.04
-4.1900e-04,0.06,0
-4.1800e-04,0.02,0.08
-4.1700e-04,0.02,0
-4.1600e-04,0.06,0
-4.1500e-04,0.06,0.08
-4.1400e-04,0.02,-0.04
-4.1300e-04,0.06,0.04
-4.1200e-04,0.02,0.04
-4.1100e-04,0.06,0.04
-4.1000e-04,0.06,0.08
-4.0900e-04,0.02,0.04
-4.0800e-04,0.06,0.04
-4.0700e-04,0.06,0
-4.0600e-04,0.1,0.12
-4.0500e-04,-0.02,0
-4.0400e-04,0.06,-0.04
-4.0300e-04,0.06,0.04
-4.0200e-04,0.06,0
-4.0100e-04,0.1,0
-4.0000e-04,0.06,-0.04
-3.9900e-04,0.14,0
-3.9800e-04,0.06,-0.04
-3.9700e-04,0.1,0.04
-3.9600e-04,0.06,0.04
-3.9500e-04,0.14,0.08
-3.9400e-04,0.06,0
-3.9300e-04,0.1,-0.04
-3.9200e-04,0.06,0
-3.9100e-04,0.06,0
-3.9000e-04,0.02,0.12
-3.8900e-04,0.06,0.04
-3.8800e-04,0.06,0
-3.8700e-04,0.06,0.04
-3.8600e-04,0.14,0.04
-3.8500e-04,0.1,-0.04
-3.8400e-04,0.18,0
-3.8300e-04,-0.02,0.04
-3.8200e-04,0.06,0.08
-3.8100e-04,0.02,0.04
-3.8000e-04,0.02,-0.04
-3.7900e-04,-0.02,0.04
-3.7800e-04,0.06,0
-3.7700e-04,0.02,0
-3.7600e-04,0.06,0
-3.7500e-04,0.02,-0.04
-3.7400e-04,0.02,-0.04
-3.7300e-04,0.06,0
-3.7200e-04,0.1,0
-3.7100e-04,0.06,0.04
-3.7000e-04,0.06,-0.08
-3.6900e-04,0.06,0
-3.6800e-04,0.14,0
-3.6700e-04,0.06,0
-3.6600e-04,0.02,0
-3.6500e-04,-0.02,0.08
-3.6400e-04,0.1,0
-3.6300e-04,0.02,0
-3.6200e-04,0.02,0
-3.6100e-04,0.14,0
-3.6000e-04,0.06,-0.08
-3.5900e-04,0.14,-0.04
-3.5800e-04,0.06,0
-3.5700e-04,0.1,0.04
-3.5600e-04,0.06,-0.08
-3.5500e-04,0.1,0
-3.5400e-04,0.02,0.04
-3.5300e-04,0.06,0
-3.5200e-04,0.06,-0.04
-3.5100e-04,0.06,0
-3.5000e-04,0.06,0
-3.4900e-04,0.06,0
-3.4800e-04,0.06,0.04
-3.4700e-04,0.14,0.08
-3.4600e-04,0.06,-0.04
-3.4500e-04,0.06,0.04
-3.4400e-04,0.06,0
-3.4300e-04,0.06,0.04
-3.4200e-04,0.1,0
-3.4100e-04,0.06,0.08
-3.4000e-04,0.06,0
-3.3900e-04,0.02,0
-3.3800e-04,0.1,0.12
-3.3700e-04,0.14,0.04
-3.3600e-04,0.06,0
-3.3500e-04,0.02,0.04
-3.3400e-04,0.06,0
-3.3300e-04,0.1,0
-3.3200e-04,0.06,0.04
-3.3100e-04,0.06,0
-3.3000e-04,-0.02,-0.04
-3.2900e-04,0.06,0
-3.2800e-04,0.1,-0.08
-3.2700e-04,0.06,0.04
-3.2600e-04,0.02,-0.08
-3.2500e-04,0.1,-0.08
-3.2400e-04,0.06,-0.08
-3.2300e-04,0.1,0
-3.2200e-04,0.14,0.08
-3.2100e-04,0.14,0
-3.2000e-04,0.1,-0.04
-3.1900e-04,0.06,0.04
-3.1800e-04,0.06,0
-3.1700e-04,0.14,0
-3.1600e-04,0.1,-0.08
-3.1500e-04,0.1,0
-3.1400e-04,0.02,-0.04
-3.1300e-04,0.06,0
-3.1200e-04,0.14,0
-3.1100e-04,0.14,-0.04
-3.1000e-04,0.06,0
-3.0900e-04,0.06,0
-3.0800e-04,0.1,0
-3.0700e-04,0.1,0
-3.0600e-04,0.06,0
-3.0500e-04,0.02,-0.08
-3.0400e-04,0.02,0
-3.0300e-04,0.02,0.12
-3.0200e-04,0.06,0.08
-3.0100e-04,0.14,0
-3.0000e-04,0.02,-0.04
-2.9900e-04,0.14,-0.04
-2.9800e-04,0.14,-0.08
-2.9700e-04,0.02,0.04
-2.9600e-04,0.02,0
-2.9500e-04,0.14,0.04
-2.9400e-04,0.14,0
-2.9300e-04,0.02,0
-2.9200e-04,0.02,0.04
-2.9100e-04,0.1,0.04
-2.9000e-04,0.06,0
-2.8900e-04,0.06,0.04
-2.8800e-04,0.14,0.04
-2.8700e-04,0.06,0
-2.8600e-04,0.06,0
-2.8500e-04,0.1,0
-2.8400e-04,0.1,0
-2.8300e-04,0.02,0
-2.8200e-04,0.14,0
-2.8100e-04,0.14,0.08
-2.8000e-04,0.02,-0.04
-2.7900e-04,0.06,0
-2.7800e-04,0.14,0.04
-2.7700e-04,0.06,0.04
-2.7600e-04,0.02,0.04
-2.7500e-04,0.02,0.04
-2.7400e-04,0.06,0
-2.7300e-04,0.06,0.04
-2.7200e-04,0.1,0.04
-2.7100e-04,0.1,0
-2.7000e-04,0.1,0.04
-2.6900e-04,0.1,0
-2.6800e-04,0.02,0
-2.6700e-04,0.02,0.08
-2.6600e-04,0.18,0
-2.6500e-04,0.06,-0.04
-2.6400e-04,0.02,0.04
-2.6300e-04,0.14,-0.08
-2.6200e-04,0.06,-0.08
-2.6100e-04,0.06,-0.04
-2.6000e-04,0.06,0
-2.5900e-04,0.1,0
-2.5800e-04,0.1,0
-2.5700e-04,0.06,0
-2.5600e-04,0.06,0.04
-2.5500e-04,0.06,0.04
-2.5400e-04,0.02,0.04
-2.5300e-04,0.02,0
-2.5200e-04,0.1,0
-2.5100e-04,0.06,-0.04
-2.5000e-04,0.06,0.04
-2.4900e-04,-0.02,-0.04
-2.4800e-04,-0.02,0
-2.4700e-04,-0.02,-0.04
-2.4600e-04,0.14,-0.04
-2.4500e-04,0.06,0
-2.4400e-04,0.06,-0.04
-2.4300e-04,0.1,0.08
-2.4200e-04,0.1,0.08
-2.4100e-04,0.06,0.08
-2.4000e-04,0.02,0
-2.3900e-04,0.06,0.04
-2.3800e-04,0.06,0.08
-2.3700e-04,0.1,0.08
-2.3600e-04,0.06,0
-2.3500e-04,0.06,0
-2.3400e-04,0.06,0.04
-2.3300e-04,0.14,-0.04
-2.3200e-04,0.06,0
-2.3100e-04,0.06,0
-2.3000e-04,0.18,0
-2.2900e-04,0.02,0.04
-2.2800e-04,0.06,0
-2.2700e-04,0.06,0
-2.2600e-04,0.06,0.04
-2.2500e-04,0.06,0.04
-2.2400e-04,0.06,0
-2.2300e-04,0.02,0.04
-2.2200e-04,0.1,0
-2.2100e-04,0.06,0.08
-2.2000e-04,-0.02,0.08
-2.1900e-04,0.1,0
-2.1800e-04,-0.02,-0.08
-2.1700e-04,0.06,-0.04
-2.1600e-04,0.1,0.04
-2.1500e-04,0.1,-0.04
-2.1400e-04,0.06,0.04
-2.1300e-04,0.1,0.04
-2.1200e-04,0.02,0
-2.1100e-04,0.06,0
-2.1000e-04,0.06,0
-2.0900e-04,0.06,-0.04
-2.0800e-04,0.1,0.04
-2.0700e-04,0.06,-0.08
-2.0600e-04,0.02,0
-2.0500e-04,0.06,0.04
-2.0400e-04,0.1,-0.04
-2.0300e-04,0.1,0
-2.0200e-04,0.06,0
-2.0100e-04,0.06,0.04
-2.0000e-04,0.02,0
-1.9900e-04,0.1,0.04
-1.9800e-04,0.06,0.08
-1.9700e-04,0.06,0
-1.9600e-04,0.02,0
-1.9500e-04,0.14,0.04
-1.9400e-04,0.1,0
-1.9300e-04,0.06,-0.04
-1.9200e-04,0.1,0.08
-1.9100e-04,0.06,0
-1.9000e-04,0.06,0.04
-1.8900e-04,0.1,0.04
-1.8800e-04,0.1,-0.04
-1.8700e-04,0.02,0.04
-1.8600e-04,0.06,-0.08
-1.8500e-04,0.02,-0.08
-1.8400e-04,0.1,0
-1.8300e-04,0.14,0.04
-1.8200e-04,0.14,-0.04
-1.8100e-04,0.02,-0.04
-1.8000e-04,0.14,0
-1.7900e-04,0.14,0
-1.7800e-04,0.1,0
-1.7700e-04,0.06,0.08
-1.7600e-04,-0.02,-0.04
-1.7500e-04,0.14,0
-1.7400e-04,0.02,0
-1.7300e-04,0.1,-0.04
-1.7200e-04,0.14,0.04
-1.7100e-04,0.06,0.04
-1.7000e-04,0.06,0.08
-1.6900e-04,0.06,0.04
-1.6800e-04,0.06,0.04
-1.6700e-04,0.02,0
-1.6600e-04,-0.02,-0.08
-1.6500e-04,0.06,0.08
-1.6400e-04,0.06,0.04
-1.6300e-04,0.14,0.04
-1.6200e-04,0.06,0.04
-1.6100e-04,0.06,0
-1.6000e-04,0.02,0
-1.5900e-04,0.02,0.08
-1.5800e-04,0.02,0
-1.5700e-04,0.06,0.08
-1.5600e-04,0.06,0
-1.5500e-04,0.06,0
-1.5400e-04,-0.06,0.04
-1.5300e-04,0.06,0.04
-1.5200e-04,0.14,0
-1.5100e-04,0.06,0
-1.5000e-04,0.1,-0.04
-1.4900e-04,0.06,-0.04
-1.4800e-04,0.1,0.04
-1.4700e-04,-0.02,-0.04
-1.4600e-04,0.06,0
-1.4500e-04,0.14,0
-1.4400e-04,0.02,0.04
-1.4300e-04,0.02,0
-1.4200e-04,0.1,0.04
-1.4100e-04,0.02,0.08
-1.4000e-04,0.14,0
-1.3900e-04,0.02,0.04
-1.3800e-04,0.1,0.04
-1.3700e-04,0.06,0
-1.3600e-04,0.14,0
-1.3500e-04,0.02,0.04
-1.3400e-04,0.06,0.04
-1.3300e-04,0.06,0
-1.3200e-04,0.06,-0.08
-1.3100e-04,0.02,-0.04
-1.3000e-04,0.14,-0.04
-1.2900e-04,0.02,0.08
-1.2800e-04,0.06,0.04
-1.2700e-04,0.06,0
-1.2600e-04,0.1,0
-1.2500e-04,0.1,0
-1.2400e-04,0.1,0.04
-1.2300e-04,0.1,0.08
-1.2200e-04,0.06,-0.08
-1.2100e-04,0.06,0
-1.2000e-04,0.06,0.04
-1.1900e-04,0.1,0
-1.1800e-04,0.02,0.04
-1.1700e-04,0.06,-0.08
-1.1600e-04,0.1,-0.08
-1.1500e-04,0.02,0
-1.1400e-04,0.06,0.04
-1.1300e-04,0.06,0
-1.1200e-04,0.02,0
-1.1100e-04,0.06,-0.04
-1.1000e-04,0.1,0.04
-1.0900e-04,0.1,0.04
-1.0800e-04,0.02,0
-1.0700e-04,0.02,0
-1.0600e-04,-0.02,-0.08
-1.0500e-04,0.06,0.04
-1.0400e-04,0.02,0
-1.0300e-04,0.06,0
-1.0200e-04,0.06,0.08
-1.0100e-04,0.02,-0.08
-1.0000e-04,0.06,-0.04
-9.9000e-05,0.06,-0.04
-9.8000e-05,0.06,0.04
-9.7000e-05,0.1,0
-9.6000e-05,-0.02,-0.04
-9.5000e-05,0.06,0.04
-9.4000e-05,0.06,0
-9.3000e-05,-0.02,0
-9.2000e-05,0.18,0
-9.1000e-05,0.06,0
-9.0000e-05,0.02,0.08
-8.9000e-05,-0.06,0.04
-8.8000e-05,0.06,0.08
-8.7000e-05,0.1,0
-8.6000e-05,0.02,0
-8.5000e-05,0.06,0.04
-8.4000e-05,-0.02,0
-8.3000e-05,0.02,0.08
-8.2000e-05,0.06,0
-8.1000e-05,0.06,0.04
-8.0000e-05,0.06,0.04
-7.9000e-05,0.06,0
-7.8000e-05,0.06,0
-7.7000e-05,0.06,0
-7.6000e-05,0.06,0
-7.5000e-05,0.02,0.04
-7.4000e-05,0.02,0.04
-7.3000e-05,0.06,0.08
-7.2000e-05,0.06,0
-7.1000e-05,0.06,-0.08
-7.0000e-05,0.1,0
-6.9000e-05,0.06,0.04
-6.8000e-05,0.06,0
-6.7000e-05,0.1,0
-6.6000e-05,0.06,0.04
-6.5000e-05,0.02,0
-6.4000e-05,0.1,0.08
-6.3000e-05,0.06,0.04
-6.2000e-05,0.14,0
-6.1000e-05,0.1,0
-6.0000e-05,0.06,-0.04
-5.9000e-05,0.06,0.04
-5.8000e-05,0.06,0.04
-5.7000e-05,0.06,0.04
-5.6000e-05,0.06,0
-5.5000e-05,0.1,0.08
-5.4000e-05,0.06,0
-5.3000e-05,0.02,-0.08
-5.2000e-05,0.06,0.04
-5.1000e-05,0.02,0
-5.0000e-05,0.1,0
-4.9000e-05,0.06,0
-4.8000e-05,0.06,0.04
-4.7000e-05,0.06,0
-4.6000e-05,0.06,0.04
-4.5000e-05,0.1,0.04
-4.4000e-05,0.06,0
-4.3000e-05,0.1,0.04
-4.2000e-05,0.1,-0.12
-4.1000e-05,0.06,-0.04
-4.0000e-05,0.1,0
-3.9000e-05,0.06,0.04
-3.8000e-05,0.1,0.08
-3.7000e-05,0.14,0
-3.6000e-05,0.02,0
-3.5000e-05,0.14,-0.04
-3.4000e-05,0.06,-0.04
-3.3000e-05,-0.02,0
-3.2000e-05,0.1,-0.08
-3.1000e-05,0.06,0.04
-3.0000e-05,0.06,0
-2.9000e-05,-0.02,0.04
-2.8000e-05,0.06,0.04
-2.7000e-05,0.02,0
-2.6000e-05,0.02,-0.04
-2.5000e-05,0.06,0.08
-2.4000e-05,0.14,0
-2.3000e-05,0.1,0.04
-2.2000e-05,0.1,0
-2.1000e-05,0.06,0
-2.0000e-05,0.06,0.04
-1.9000e-05,0.06,-0.04
-1.8000e-05,0.1,0
-1.7000e-05,0.1,0.08
-1.6000e-05,0.06,0.04
-1.5000e-05,0.14,0
-1.4000e-05,0.1,-0.08
-1.3000e-05,0.06,0
-1.2000e-05,0.06,0
-1.1000e-05,0.06,0
-1.0000e-05,0.1,0
-9.0000e-06,0.1,0
-8.0000e-06,0.14,0.04
-7.0000e-06,0.06,0
-6.0000e-06,0.06,0.08
-5.0000e-06,0.02,0.04
-4.0000e-06,0.1,0
-3.0000e-06,0.06,-0.08
-2.0000e-06,0.06,0
-1.0000e-06,0.06,0
4.3000e-18,4.86,-0.04
1.0000e-06,4.98,0.16
2.0000e-06,4.98,0.24
3.0000e-06,5.06,0.16
4.0000e-06,4.98,0.24
5.0000e-06,5.02,0.2
6.0000e-06,5.02,0.2
7.0000e-06,4.98,0.2
8.0000e-06,4.94,0.24
9.0000e-06,4.98,0.32
1.0000e-05,4.98,0.32
1.1000e-05,4.94,0.32
1.2000e-05,5.02,0.36
1.3000e-05,5.02,0.4
1.4000e-05,4.9,0.44
1.5000e-05,4.94,0.4
1.6000e-05,5.02,0.4
1.7000e-05,5.02,0.32
1.8000e-05,4.98,0.4
1.9000e-05,4.98,0.44
2.0000e-05,4.98,0.48
2.1000e-05,4.94,0.36
2.2000e-05,5.02,0.52
2.3000e-05,4.94,0.52
2.4000e-05,5.02,0.56
2.5000e-05,4.94,0.48
2.6000e-05,4.98,0.6
2.7000e-05,5.02,0.6
2.8000e-05,4.98,0.56
2.9000e-05,4.98,0.64
3.0000e-05,4.94,0.68
3.1000e-05,5.02,0.68
3.2000e-05,4.98,0.64
3.3000e-05,4.94,0.64
3.4000e-05,5.06,0.68
3.5000e-05,4.98,0.68
3.6000e-05,5.02,0.68
3.7000e-05,4.94,0.68
3.8000e-05,4.98,0.72
3.9000e-05,4.94,0.68
4.0000e-05,5.02,0.76
4.1000e-05,5.06,0.8
4.2000e-05,4.98,0.72
4.3000e-05,4.98,0.76
4.4000e-05,5.02,0.8
4.5000e-05,4.98,0.8
4.6000e-05,5.06,0.88
4.7000e-05,5.02,0.84
4.8000e-05,4.94,0.8
4.9000e-05,5.02,0.84
5.0000e-05,5.02,0.88
5.1000e-05,5.02,0.84
5.2000e-05,5.06,0.92
5.3000e-05,5.06,0.84
5.4000e-05,5.02,0.96
5.5000e-05,5.02,0.92
5.6000e-05,5.02,1.04
5.7000e-05,5.1,1.04
5.8000e-05,5.02,1
5.9000e-05,4.98,1.04
6.0000e-05,4.98,0.96
6.1000e-05,5.06,1
6.2000e-05,4.98,1.08
6.3000e-05,5.02,1.04
6.4000e-05,4.98,1.04
6.5000e-05,5.06,1.08
6.6000e-05,4.98,1.12
6.7000e-05,5.1,1.16
6.8000e-05,4.94,1.12
6.9000e-05,5.06,1.12
7.0000e-05,4.98,1.12
7.1000e-05,4.94,1.12
7.2000e-05,5.06,1.16
7.3000e-05,5.1,1.2
7.4000e-05,4.9,1.24
7.5000e-05,5.02,1.24
7.6000e-05,5.02,1.28
7.7000e-05,5.02,1.2
7.8000e-05,4.94,1.24
7.9000e-05,4.98,1.24
8.0000e-05,5.02,1.28
8.1000e-05,5.06,1.2
8.2000e-05,5.02,1.32
8.3000e-05,5.02,1.32
8.4000e-05,4.98,1.32
8.5000e-05,4.94,1.28
8.6000e-05,5.02,1.28
8.7000e-05,5.06,1.36
8.8000e-05,5.1,1.36
8.9000e-05,5.06,1.36
9.0000e-05,5.06,1.4
9.1000e-05,5.06,1.4
9.2000e-05,5.06,1.4
9.3000e-05,5.06,1.36
9.4000e-05,5.14,1.4
9.5000e-05,5.06,1.36
9.6000e-05,5.02,1.44
9.7000e-05,5.02,1.4
9.8000e-05,4.98,1.4
9.9000e-05,5.06,1.4
1.0000e-04,4.98,1.52
1.0100e-04,5.02,1.44
1.0200e-04,5.06,1.4
1.0300e-04,5.1,1.4
1.0400e-04,4.98,1.48
1.0500e-04,5.02,1.4
1.0600e-04,5.02,1.44
1.0700e-04,4.98,1.44
1.0800e-04,5.06,1.48
1.0900e-04,4.98,1.44
1.1000e-04,5.02,1.4
1.1100e-04,4.98,1.48
1.1200e-04,4.98,1.52
1.1300e-04,5.02,1.52
1.1400e-04,5.02,1.56
1.1500e-04,5.06,1.48
1.1600e-04,5.02,1.52
1.1700e-04,5.06,1.6
1.1800e-04,5.06,1.56
1.1900e-04,5.06,1.6
1.2000e-04,5.1,1.6
1.2100e-04,5.1,1.6
1.2200e-04,5.02,1.56
1.2300e-04,5.06,1.6
1.2400e-04,5.02,1.6
1.2500e-04,5.02,1.64
1.2600e-04,5.02,1.56
1.2700e-04,5.06,1.56
1.2800e-04,4.98,1.6
1.2900e-04,4.98,1.56
1.3000e-04,5.02,1.64
1.3100e-04,4.98,1.64
1.3200e-04,4.94,1.64
1.3300e-04,5.02,1.6
1.3400e-04,5.1,1.64
1.3500e-04,5.06,1.68
1.3600e-04,5.02,1.6
1.3700e-04,4.98,1.72
1.3800e-04,5.02,1.68
1.3900e-04,4.98,1.72
1.4000e-04,5.06,1.76
1.4100e-04,4.94,1.72
1.4200e-04,5.02,1.68
1.4300e-04,5.06,1.72
1.4400e-04,5.06,1.72
1.4500e-04,5.06,1.72
1.4600e-04,5.06,1.76
1.4700e-04,5.06,1.76
1.4800e-04,4.98,1.68
1.4900e-04,5.02,1.72
1.5000e-04,5.06,1.76
1.5100e-04,5.06,1.8
1.5200e-04,5.02,1.8
1.5300e-04,5.02,1.76
1.5400e-04,5.06,1.76
1.5500e-04,5.06,1.8
1.5600e-04,5.02,1.76
1.5700e-04,4.94,1.76
1.5800e-04,5.02,1.8
1.5900e-04,5.1,1.84
1.6000e-04,5.02,1.8
1.6100e-04,5.02,1.84
1.6200e-04,5.02,1.84
1.6300e-04,5.06,1.84
1.6400e-04,5.06,1.84
1.6500e-04,5.1,1.84
1.6600e-04,5.06,1.4
1.6700e-04,5.1,1.16
1.6800e-04,4.98,1.08
1.6900e-04,5.06,0.96
1.7000e-04,4.98,0.92
1.7100e-04,5.06,0.96
1.7200e-04,5.06,0.88
1.7300e-04,5.06,0.92
1.7400e-04,4.98,1
1.7500e-04,5.06,0.92
1.7600e-04,5.06,0.96
1.7700e-04,5.06,0.92
1.7800e-04,5.06,0.92
1.7900e-04,5.06,0.88
1.8000e-04,5.06,0.92
1.8100e-04,5.02,0.92
1.8200e-04,5.14,0.92
1.8300e-04,5.06,0.96
1.8400e-04,4.98,0.92
1.8500e-04,5.06,0.96
1.8600e-04,5.06,0.96
1.8700e-04,5.06,1.04
1.8800e-04,5.1,0.96
1.8900e-04,5.02,1
1.9000e-04,5.02,1.04
1.9100e-04,5.14,1.04
1.9200e-04,5.06,1
1.9300e-04,5.06,1
1.9400e-04,5.06,1.04
1.9500e-04,5.02,1.04
1.9600e-04,4.94,1.08
1.9700e-04,5.06,1.08
1.9800e-04,5.02,1.16
1.9900e-04,5.02,0.96
2.0000e-04,5.06,1.04
2.0100e-04,5.02,1.12
2.0200e-04,5.1,1.04
2.0300e-04,5.18,1.12
2.0400e-04,5.06,1.08
2.0500e-04,4.98,1.04
2.0600e-04,5.06,1.04
2.0700e-04,5.02,1.12
2.0800e-04,5.02,1.08
2.0900e-04,5.06,1.12
2.1000e-04,5.06,1.08
2.1100e-04,5.06,1.16
2.1200e-04,5.06,1.08
2.1300e-04,5.06,1.08
2.1400e-04,5.06,1.08
2.1500e-04,5.02,1.16
2.1600e-04,5.06,1.12
2.1700e-04,5.06,1.12
2.1800e-04,5.02,1.16
2.1900e-04,5.02,1.12
2.2000e-04,4.98,1.16
2.2100e-04,5.1,1.16
2.2200e-04,5.06,1.2
2.2300e-04,4.98,1.12
2.2400e-04,5.02,1.12
2.2500e-04,5.02,1.16
2.2600e-04,5.06,1.16
2.2700e-04,5.06,1.16
2.2800e-04,4.98,1.28
2.2900e-04,5.14,1.24
2.3000e-04,5.02,1.2
2.3100e-04,4.98,1.16
2.3200e-04,5.02,1.24
2.3300e-04,5.1,1.16
2.3400e-04,5.06,1.28
2.3500e-04,5.02,1.2
2.3600e-04,5.1,1.24
2.3700e-04,5.1,1.28
2.3800e-04,5.06,1.16
2.3900e-04,5.1,1.28
2.4000e-04,5.02,1.2
2.4100e-04,5.06,1.24
2.4200e-04,5.1,1.2
2.4300e-04,5.06,1.24
2.4400e-04,5.1,1.32
2.4500e-04,5.06,1.24
2.4600e-04,5.06,1.28
2.4700e-04,5.1,1.28
2.4800e-04,5.06,1.28
2.4900e-04,5.06,1.28
2.5000e-04,5.06,1.28
2.5100e-04,5.06,1.36
2.5200e-04,5.06,1.32
2.5300e-04,5.06,1.32
2.5400e-04,5.1,1.28
2.5500e-04,5.06,1.28
2.5600e-04,5.1,1.28
2.5700e-04,5.02,1.28
2.5800e-04,5.02,1.32
2.5900e-04,5.06,1.4
2.6000e-04,5.02,1.32
2.6100e-04,5.06,1.36
2.6200e-04,5.02,1.28
2.6300e-04,5.02,1.28
2.6400e-04,5.1,1.32
2.6500e-04,5.06,1.36
2.6600e-04,4.98,1.4
2.6700e-04,5.06,1.4
2.6800e-04,5.06,1.36
2.6900e-04,5.02,1.36
2.7000e-04,5.06,1.32
2.7100e-04,5.06,1.36
2.7200e-04,5.06,1.4
2.7300e-04,5.1,1.44
2.7400e-04,5.06,1.4
2.7500e-04,5.06,1.36
2.7600e-04,5.14,1.44
2.7700e-04,5.06,1.48
2.7800e-04,5.02,1.4
2.7900e-04,5.06,1.44
2.8000e-04,5.02,1.4
2.8100e-04,5.1,1.4
2.8200e-04,5.06,1.48
2.8300e-04,5.02,1.36
2.8400e-04,5.02,1.44
2.8500e-04,5.06,1.48
2.8600e-04,5.06,1.44
2.8700e-04,5.06,1.4
2.8800e-04,5.02,1.4
2.8900e-04,5.02,1.4
2.9000e-04,5.02,1.48
2.9100e-04,5.06,1.44
2.9200e-04,5.06,1.4
2.9300e-04,5.06,1.44
2.9400e-04,5.02,1.52
2.9500e-04,5.1,1.48
2.9600e-04,5.06,1.52
2.9700e-04,5.06,1.52
2.9800e-04,5.06,1.44
2.9900e-04,5.02,1.52
3.0000e-04,5.06,1.56
3.0100e-04,4.98,1.52
3.0200e-04,5.06,1.48
3.0300e-04,5.1,1.52
3.0400e-04,5.06,1.52
3.0500e-04,5.02,1.56
3.0600e-04,5.02,1.52
3.0700e-04,5.06,1.44
3.0800e-04,4.98,1.56
3.0900e-04,5.1,1.52
3.1000e-04,5.1,1.48
3.1100e-04,5.02,1.6
3.1200e-04,5.02,1.52
3.1300e-04,5.06,1.56
3.1400e-04,5.02,1.56
3.1500e-04,5.02,1.52
3.1600e-04,4.98,1.56
3.1700e-04,5.1,1.56
3.1800e-04,4.98,1.6
3.1900e-04,5.06,1.6
3.2000e-04,5.06,1.6
3.2100e-04,5.1,1.56
3.2200e-04,5.1,1.6
3.2300e-04,5.1,1.6
3.2400e-04,5.1,1.6
3.2500e-04,5.06,1.6
3.2600e-04,5.02,1.6
3.2700e-04,4.98,1.6
3.2800e-04,5.1,1.6
3.2900e-04,5.02,1.64
3.3000e-04,5.06,1.64
3.3100e-04,5.02,1.64
3.3200e-04,5.06,1.64
3.3300e-04,5.02,1.64
3.3400e-04,4.98,1.64
3.3500e-04,5.02,1.6
3.3600e-04,5.1,1.68
3.3700e-04,5.06,1.76
3.3800e-04,5.1,1.64
3.3900e-04,5.06,1.72
3.4000e-04,5.1,1.72
3.4100e-04,5.06,1.68
3.4200e-04,5.1,1.68
3.4300e-04,5.06,1.68
3.4400e-04,4.98,1.72
3.4500e-04,5.02,1.72
3.4600e-04,5.06,1.76
3.4700e-04,5.06,1.68
3.4800e-04,5.06,1.68
3.4900e-04,5.06,1.72
3.5000e-04,5.1,1.76
3.5100e-04,5.02,1.72
3.5200e-04,5.06,1.76
3.5300e-04,5.06,1.8
3.5400e-04,5.1,1.68
3.5500e-04,5.02,1.8
3.5600e-04,5.02,1.68
3.5700e-04,5.02,1.76
3.5800e-04,5.1,1.72
3.5900e-04,5.02,1.68
3.6000e-04,5.06,1.76
3.6100e-04,5.02,1.72
3.6200e-04,5.06,1.72
3.6300e-04,5.02,1.8
3.6400e-04,5.06,1.76
3.6500e-04,5.06,1.8
3.6600e-04,5.02,1.8
3.6700e-04,5.02,1.76
3.6800e-04,5.1,1.8
3.6900e-04,5.06,1.8
3.7000e-04,5.06,1.76
3.7100e-04,5.1,1.8
3.7200e-04,5.06,1.72
3.7300e-04,5.06,1.76
3.7400e-04,5.06,1.8
3.7500e-04,4.98,1.84
3.7600e-04,5.06,1.76
3.7700e-04,5.02,1.8
3.7800e-04,5.06,1.84
3.7900e-04,5.06,1.84
3.8000e-04,5.02,1.88
3.8100e-04,5.06,1.8
3.8200e-04,5.06,1.8
3.8300e-04,5.1,1.8
3.8400e-04,5.02,1.72
3.8500e-04,5.06,1.88
3.8600e-04,5.1,1.8
3.8700e-04,4.98,1.92
3.8800e-04,5.1,1.84
3.8900e-04,5.06,1.8
3.9000e-04,4.98,1.84
3.9100e-04,5.02,1.84
3.9200e-04,5.02,1.84
3.9300e-04,5.02,1.84
3.9400e-04,5.06,1.88
3.9500e-04,4.98,1.88
3.9600e-04,5.02,1.8
3.9700e-04,5.06,1.84
3.9800e-04,5.06,1.84
3.9900e-04,4.98,1.92
4.0000e-04,5.02,1.8
4.0100e-04,5.1,1.92
4.0200e-04,5.06,1.84
4.0300e-04,5.06,1.88
4.0400e-04,5.02,2
4.0500e-04,5.06,1.88
4.0600e-04,5.06,1.84
4.0700e-04,5.14,1.92
4.0800e-04,4.98,1.92
4.0900e-04,5.06,1.84
4.1000e-04,5.02,1.88
4.1100e-04,5.06,1.92
4.1200e-04,5.06,1.88
4.1300e-04,5.06,1.84
4.1400e-04,5.06,1.96
4.1500e-04,5.1,1.92
4.1600e-04,5.06,1.92
4.1700e-04,5.02,1.96
4.1800e-04,5.02,1.92
4.1900e-04,5.06,1.92
4.2000e-04,5.06,1.96
4.2100e-04,5.1,1.96
4.2200e-04,5.06,1.96
4.2300e-04,5.02,1.96
4.2400e-04,5.06,1.92
4.2500e-04,5.02,1.96
4.2600e-04,5.06,1.96
4.2700e-04,5.06,2
4.2800e-04,5.06,1.92
4.2900e-04,5.02,1.92
4.3000e-04,5.02,1.96
4.3100e-04,4.94,1.96
4.3200e-04,5.02,1.96
4.3300e-04,5.06,1.96
4.3400e-04,5.06,2
4.3500e-04,5.02,1.96
4.3600e-04,5.06,2.04
4.3700e-04,5.06,2
4.3800e-04,5.06,2.08
4.3900e-04,5.06,2.04
4.4000e-04,5.06,1.96
4.4100e-04,5.02,1.96
4.4200e-04,5.06,2.04
4.4300e-04,4.98,2.04
4.4400e-04,5.06,2.08
4.4500e-04,4.98,2
4.4600e-04,5.1,2
4.4700e-04,5.1,2.04
4.4800e-04,4.98,2.08
4.4900e-04,5.06,2.04
4.5000e-04,5.1,2.04
4.5100e-04,5.02,2.04
4.5200e-04,5.1,1.96
4.5300e-04,5.06,2.04
4.5400e-04,5.02,1.96
4.5500e-04,5.02,2.04
4.5600e-04,5.06,2.04
4.5700e-04,5.06,2.04
4.5800e-04,5.14,2.04
4.5900e-04,5.1,2.08
4.6000e-04,5.06,2.04
4.6100e-04,4.98,2.08
4.6200e-04,5.06,2.08
4.6300e-04,5.06,2.12
4.6400e-04,5.06,2.08
4.6500e-04,5.02,2.08
4.6600e-04,5.02,2.08
4.6700e-04,5.06,2.12
4.6800e-04,5.1,2.12
4.6900e-04,5.02,2.12
4.7000e-04,5.06,2.12
4.7100e-04,5.06,2.04
4.7200e-04,5.14,2.16
4.7300e-04,5.1,2.12
4.7400e-04,5.02,2.12
4.7500e-04,5.02,2.12
4.7600e-04,4.98,2.16
4.7700e-04,5.1,2.08
4.7800e-04,5.06,2.08
4.7900e-04,5.02,2.16
4.8000e-04,5.02,2.12
4.8100e-04,5.06,2.12
4.8200e-04,5.06,2.12
4.8300e-04,5.1,2.12
4.8400e-04,5.02,2.04
4.8500e-04,5.06,2.2
4.8600e-04,5.06,2.16
4.8700e-04,5.1,2.08
4.8800e-04,5.14,2.2
4.8900e-04,5.06,2.12
4.9000e-04,5.14,2.12
4.9100e-04,5.02,2.12
4.9200e-04,5.06,2.2
4.9300e-04,5.06,2.16
4.9400e-04,5.06,2.2
4.9500e-04,5.02,2.16
4.9600e-04,5.02,2.2
4.9700e-04,5.1,2.16
4.9800e-04,5.06,2.2
4.9900e-04,5.02,2.16
5.0000e-04,4.98,2.16
5.0100e-04,5.06,2.16
5.0200e-04,5.06,2.16
5.0300e-04,5.06,2.2
5.0400e-04,5.02,2.2
5.0500e-04,5.02,2.24
5.0600e-04,5.06,2.24
5.0700e-04,5.14,2.2
5.0800e-04,5.02,2.28
5.0900e-04,5.06,2.24
