results/Osciloscopio/9-26/tek0032ALL.csv

Model,DPO3034
Firmware Version,2.16

Point Format,Y,
Horizontal Units,S,
Horizontal Scale,0.1,
Sample Interval,0.0001,
Record Length,10000,
Gating,0.0% to 100.0%,0.0% to 100.0%
Probe Attenuation,1,1
Vertical Units,V,V
Vertical Offset,0,0
Vertical Scale,2,2
Label,,
TIME,CH1,CH2
-3.0700e-02,0.04,-0.04
-3.0600e-02,0.2,0.04
-3.0500e-02,0.2,0.04
-3.0400e-02,0.12,-0.04
-3.0300e-02,0.04,0.12
-3.0200e-02,0.12,0.04
-3.0100e-02,0.04,-0.12
-3.0000e-02,0.12,-0.04
-2.9900e-02,0.2,-0.12
-2.9800e-02,0.04,-0.04
-2.9700e-02,0.2,0.04
-2.9600e-02,0.2,0.04
-2.9500e-02,0.12,-0.04
-2.9400e-02,-0.04,-0.04
-2.9300e-02,0.12,0.04
-2.9200e-02,0.12,-0.12
-2.9100e-02,0.04,-0.04
-2.9000e-02,-0.04,0.04
-2.8900e-02,0.04,-0.04
-2.8800e-02,-0.04,-0.04
-2.8700e-02,-0.04,0.04
-2.8600e-02,0.04,0.04
-2.8500e-02,0.04,0.04
-2.8400e-02,-0.04,0.2
-2.8300e-02,0.2,0.04
-2.8200e-02,0.04,0.12
-2.8100e-02,-0.04,-0.04
-2.8000e-02,0.04,0.04
-2.7900e-02,0.2,0.12
-2.7800e-02,0.12,0.04
-2.7700e-02,0.12,0.04
-2.7600e-02,0.28,0.04
-2.7500e-02,-0.04,0.04
-2.7400e-02,0.12,-0.04
-2.7300e-02,-0.04,0.04
-2.7200e-02,0.04,-0.04
-2.7100e-02,-0.04,0.04
-2.7000e-02,0.12,-0.04
-2.6900e-02,0.04,-0.04
-2.6800e-02,0.12,0.04
-2.6700e-02,0.04,-0.04
-2.6600e-02,0.04,0.04
-2.6500e-02,0.12,0.04
-2.6400e-02,0.04,0.04
-2.6300e-02,0.04,0.12
-2.6200e-02,0.2,0.04
-2.6100e-02,0.04,0.04
-2.6000e-02,0.2,0.04
-2.5900e-02,0.2,0.12
-2.5800e-02,-0.04,0.04
-2.5700e-02,0.04,0.04
-2.5600e-02,0.12,0.04
-2.5500e-02,0.12,0.04
-2.5400e-02,0.12,0.04
-2.5300e-02,0.04,0.04
-2.5200e-02,0.12,0.04
-2.5100e-02,0.12,0.12
-2.5000e-02,-0.04,0.04
-2.4900e-02,-0.04,0.12
-2.4800e-02,-0.04,0.04
-2.4700e-02,0.04,-0.12
-2.4600e-02,0.04,-0.04
-2.4500e-02,0.04,-0.04
-2.4400e-02,-0.04,0.04
-2.4300e-02,0.12,0.04
-2.4200e-02,0.12,-0.04
-2.4100e-02,0.12,0.12
-2.4000e-02,-0.04,0.04
-2.3900e-02,-0.04,0.12
-2.3800e-02,0.04,0.04
-2.3700e-02,0.12,-0.04
-2.3600e-02,-0.04,-0.04
-2.3500e-02,0.12,-0.04
-2.3400e-02,-0.12,0.04
-2.3300e-02,0.12,-0.04
-2.3200e-02,0.12,-0.04
-2.3100e-02,0.2,0.12
-2.3000e-02,0.04,-0.04
-2.2900e-02,0.04,0.12
-2.2800e-02,0.04,0.04
-2.2700e-02,0.04,0.04
-2.2600e-02,-0.04,0.12
-2.2500e-02,0.04,0.04
-2.2400e-02,0.12,0.04
-2.2300e-02,0.12,-0.04
-2.2200e-02,0.04,0.04
-2.2100e-02,0.12,-0.04
-2.2000e-02,0.04,-0.04
-2.1900e-02,0.2,0.04
-2.1800e-02,0.04,0.04
-2.1700e-02,0.04,0.04
-2.1600e-02,0.2,0.12
-2.1500e-02,0.12,0.04
-2.1400e-02,0.12,0.04
-2.1300e-02,0.12,0.12
-2.1200e-02,0.12,0.04
-2.1100e-02,0.12,0.04
-2.1000e-02,0.2,-0.12
-2.0900e-02,0.12,0.12
-2.0800e-02,0.12,0.04
-2.0700e-02,-0.04,-0.04
-2.0600e-02,0.12,-0.12
-2.0500e-02,0.04,0.12
-2.0400e-02,0.12,0.04
-2.0300e-02,-0.04,0.04
-2.0200e-02,0.04,0.12
-2.0100e-02,-0.04,-0.04
-2.0000e-02,0.04,0.04
-1.9900e-02,0.12,0.04
-1.9800e-02,-0.04,-0.04
-1.9700e-02,0.12,0.2
-1.9600e-02,0.12,0.12
-1.9500e-02,0.12,0.12
-1.9400e-02,0.04,0.12
-1.9300e-02,0.12,-0.04
-1.9200e-02,0.12,-0.04
-1.9100e-02,0.12,-0.04
-1.9000e-02,0.12,-0.04
-1.8900e-02,0.2,0.04
-1.8800e-02,0.04,0.12
-1.8700e-02,-0.04,0.04
-1.8600e-02,0.12,0.12
-1.8500e-02,0.04,0.04
-1.8400e-02,0.12,0.04
-1.8300e-02,0.04,-0.04
-1.8200e-02,-0.04,0.04
-1.8100e-02,0.04,0.04
-1.8000e-02,0.04,-0.04
-1.7900e-02,0.04,-0.04
-1.7800e-02,0.04,-0.04
-1.7700e-02,-0.04,0.04
-1.7600e-02,-0.04,-0.04
-1.7500e-02,0.04,0.04
-1.7400e-02,0.12,0.04
-1.7300e-02,0.12,-0.04
-1.7200e-02,0.04,0.04
-1.7100e-02,0.04,0.12
-1.7000e-02,0.12,-0.04
-1.6900e-02,0.12,0.12
-1.6800e-02,-0.04,0.2
-1.6700e-02,0.12,-0.04
-1.6600e-02,-0.04,0.12
-1.6500e-02,0.12,0.04
-1.6400e-02,0.04,0.04
-1.6300e-02,-0.04,0.04
-1.6200e-02,0.12,0.04
-1.6100e-02,0.04,0.04
-1.6000e-02,0.2,0.04
-1.5900e-02,0.04,0.12
-1.5800e-02,-0.04,0.12
-1.5700e-02,0.04,-0.04
-1.5600e-02,-0.04,0.04
-1.5500e-02,0.2,-0.04
-1.5400e-02,0.12,0.04
-1.5300e-02,0.12,-0.04
-1.5200e-02,-0.04,-0.04
-1.5100e-02,0.12,0.04
-1.5000e-02,0.12,0.12
-1.4900e-02,-0.04,0.12
-1.4800e-02,0.04,0.04
-1.4700e-02,0.12,0.12
-1.4600e-02,0.2,-0.04
-1.4500e-02,0.04,0.04
-1.4400e-02,0.04,0.12
-1.4300e-02,0.04,-0.04
-1.4200e-02,0.12,-0.2
-1.4100e-02,-0.04,0.04
-1.4000e-02,0.12,0.12
-1.3900e-02,0.04,0.04
-1.3800e-02,-0.04,-0.04
-1.3700e-02,0.12,0.04
-1.3600e-02,-0.04,0.04
-1.3500e-02,0.12,-0.04
-1.3400e-02,-0.12,-0.04
-1.3300e-02,0.04,0.04
-1.3200e-02,0.04,0.12
-1.3100e-02,0.12,-0.04
-1.3000e-02,0.2,-0.12
-1.2900e-02,0.04,-0.04
-1.2800e-02,0.2,0.04
-1.2700e-02,0.12,0.04
-1.2600e-02,0.12,-0.04
-1.2500e-02,0.2,0.12
-1.2400e-02,0.04,-0.04
-1.2300e-02,0.12,0.2
-1.2200e-02,0.2,0.12
-1.2100e-02,0.04,-0.04
-1.2000e-02,0.12,-0.04
-1.1900e-02,0.04,0.04
-1.1800e-02,0.12,0.04
-1.1700e-02,-0.04,-0.04
-1.1600e-02,0.04,-0.04
-1.1500e-02,0.2,0.04
-1.1400e-02,0.2,-0.04
-1.1300e-02,0.2,0.04
-1.1200e-02,0.12,0.04
-1.1100e-02,-0.04,0.04
-1.1000e-02,0.04,0.04
-1.0900e-02,0.04,0.04
-1.0800e-02,-0.04,-0.04
-1.0700e-02,0.12,0.2
-1.0600e-02,-0.04,0.12
-1.0500e-02,-0.04,0.04
-1.0400e-02,0.2,0.04
-1.0300e-02,-0.04,-0.04
-1.0200e-02,0.12,0.04
-1.0100e-02,0.04,-0.04
-1.0000e-02,0.04,-0.04
-9.9000e-03,0.12,0.04
-9.8000e-03,0.04,0.04
-9.7000e-03,-0.12,-0.04
-9.6000e-03,-0.04,0.04
-9.5000e-03,0.04,0.04
-9.4000e-03,-0.04,0.04
-9.3000e-03,0.04,-0.04
-9.2000e-03,0.04,0.04
-9.1000e-03,0.12,-0.04
-9.0000e-03,0.12,-0.04
-8.9000e-03,0.2,-0.12
-8.8000e-03,0.12,-0.04
-8.7000e-03,0.12,0.12
-8.6000e-03,0.12,-0.04
-8.5000e-03,0.12,0.04
-8.4000e-03,0.28,-0.04
-8.3000e-03,-0.04,-0.04
-8.2000e-03,0.2,-0.04
-8.1000e-03,-0.04,0.04
-8.0000e-03,0.04,0.04
-7.9000e-03,0.2,0.12
-7.8000e-03,0.04,-0.12
-7.7000e-03,-0.04,0.04
-7.6000e-03,-0.04,0.2
-7.5000e-03,-0.04,-0.04
-7.4000e-03,0.04,0.04
-7.3000e-03,0.04,0.12
-7.2000e-03,0.12,0.04
-7.1000e-03,0.2,-0.04
-7.0000e-03,0.04,-0.04
-6.9000e-03,0.12,-0.04
-6.8000e-03,0.12,0.04
-6.7000e-03,0.2,0.04
-6.6000e-03,0.2,-0.2
-6.5000e-03,0.04,0.04
-6.4000e-03,0.04,-0.04
-6.3000e-03,0.12,-0.04
-6.2000e-03,0.12,0.04
-6.1000e-03,0.12,-0.2
-6.0000e-03,0.12,0.04
-5.9000e-03,0.2,0.04
-5.8000e-03,0.12,-0.04
-5.7000e-03,0.04,0.04
-5.6000e-03,0.04,-0.04
-5.5000e-03,0.12,0.04
-5.4000e-03,-0.04,0.04
-5.3000e-03,0.04,0.04
-5.2000e-03,0.04,0.04
-5.1000e-03,0.04,-0.04
-5.0000e-03,0.04,-0.04
-4.9000e-03,0.04,-0.04
-4.8000e-03,0.12,0.12
-4.7000e-03,-0.04,-0.04
-4.6000e-03,0.12,0.04
-4.5000e-03,0.12,-0.04
-4.4000e-03,0.04,0.12
-4.3000e-03,0.04,0.12
-4.2000e-03,0.2,0.04
-4.1000e-03,0.12,-0.04
-4.0000e-03,0.12,0.04
-3.9000e-03,0.2,0.12
-3.8000e-03,0.04,0.04
-3.7000e-03,-0.04,0.04
-3.6000e-03,0.12,0.12
-3.5000e-03,0.04,0.04
-3.4000e-03,0.04,0.04
-3.3000e-03,0.12,0.12
-3.2000e-03,0.12,0.12
-3.1000e-03,0.04,-0.04
-3.0000e-03,0.12,-0.04
-2.9000e-03,-0.04,0.12
-2.8000e-03,-0.04,-0.04
-2.7000e-03,0.04,0.12
-2.6000e-03,0.04,0.2
-2.5000e-03,0.04,-0.04
-2.4000e-03,0.12,0.2
-2.3000e-03,-0.04,-0.12
-2.2000e-03,0.12,0.04
-2.1000e-03,-0.12,0.04
-2.0000e-03,0.2,0.04
-1.9000e-03,-0.04,-0.04
-1.8000e-03,0.12,0.04
-1.7000e-03,0.04,0.04
-1.6000e-03,0.2,0.04
-1.5000e-03,0.2,0.04
-1.4000e-03,0.12,0.04
-1.3000e-03,0.12,0.04
-1.2000e-03,0.04,0.04
-1.1000e-03,0.04,-0.12
-1.0000e-03,0.2,0.04
-9.0000e-04,0.04,0.04
-8.0000e-04,0.04,0.04
-7.0000e-04,0.12,-0.04
-6.0000e-04,0.2,0.04
-5.0000e-04,0.04,0.04
-4.0000e-04,0.12,-0.04
-3.0000e-04,-0.04,0.12
-2.0000e-04,0.04,-0.12
-1.0000e-04,0.12,-0.04
-1.3555e-16,9.96,1.88
1.0000e-04,10.04,1.96
2.0000e-04,9.96,1.96
3.0000e-04,10.04,1.96
4.0000e-04,10.04,2.04
5.0000e-04,10.04,1.96
6.0000e-04,10.04,2.12
7.0000e-04,9.96,1.96
8.0000e-04,9.96,2.04
9.0000e-04,10.04,1.8
1.0000e-03,10.04,2.12
1.1000e-03,10.04,1.96
1.2000e-03,10.04,1.96
1.3000e-03,9.96,2.12
1.4000e-03,10.12,1.88
1.5000e-03,10.04,1.96
1.6000e-03,10.12,1.88
1.7000e-03,10.12,1.96
1.8000e-03,10.04,1.88
1.9000e-03,9.96,2.12
2.0000e-03,9.88,1.88
2.1000e-03,10.04,1.96
2.2000e-03,10.04,2.04
2.3000e-03,9.96,2.04
2.4000e-03,9.96,1.96
2.5000e-03,10.12,1.88
2.6000e-03,9.96,2.12
2.7000e-03,10.04,2.12
2.8000e-03,9.88,1.96
2.9000e-03,9.96,1.96
3.0000e-03,9.96,2.04
3.1000e-03,10.04,2.04
3.2000e-03,10.04,2.04
3.3000e-03,9.96,1.96
3.4000e-03,10.04,2.04
3.5000e-03,10.04,2.04
3.6000e-03,9.88,2.04
3.7000e-03,10.04,1.96
3.8000e-03,9.88,2.04
3.9000e-03,10.04,1.96
4.0000e-03,9.88,1.88
4.1000e-03,10.04,1.96
4.2000e-03,10.2,2.04
4.3000e-03,9.88,1.96
4.4000e-03,9.8,2.04
4.5000e-03,9.96,2.04
4.6000e-03,10.12,2.04
4.7000e-03,10.12,2.04
4.8000e-03,10.12,1.88
4.9000e-03,9.96,1.88
5.0000e-03,9.96,1.96
5.1000e-03,10.12,2.04
5.2000e-03,10.04,2.04
5.3000e-03,9.88,1.88
5.4000e-03,10.04,2.2
5.5000e-03,10.04,1.96
5.6000e-03,9.96,1.96
5.7000e-03,10.04,1.88
5.8000e-03,10.04,1.96
5.9000e-03,10.04,1.96
6.0000e-03,10.04,2.04
6.1000e-03,9.88,1.8
6.2000e-03,10.04,2.04
6.3000e-03,10.12,2.04
6.4000e-03,10.04,2.04
6.5000e-03,9.96,1.96
6.6000e-03,10.04,1.88
6.7000e-03,9.96,1.96
6.8000e-03,10.12,2.04
6.9000e-03,10.12,1.96
7.0000e-03,9.96,1.96
7.1000e-03,10.12,1.88
7.2000e-03,9.96,2.04
7.3000e-03,10.04,1.88
7.4000e-03,10.04,2.04
7.5000e-03,9.96,1.88
7.6000e-03,10.04,1.96
7.7000e-03,10.04,1.88
7.8000e-03,9.96,1.88
7.9000e-03,10.12,1.96
8.0000e-03,9.96,1.96
8.1000e-03,9.96,2.04
8.2000e-03,10.04,1.96
8.3000e-03,10.04,1.96
8.4000e-03,9.88,1.88
8.5000e-03,10.04,1.96
8.6000e-03,9.96,2.04
8.7000e-03,10.04,2.04
8.8000e-03,10.04,2.12
8.9000e-03,9.96,2.12
9.0000e-03,10.12,1.96
9.1000e-03,10.12,1.96
9.2000e-03,9.88,1.96
9.3000e-03,9.88,1.88
9.4000e-03,9.88,1.96
9.5000e-03,9.96,1.88
9.6000e-03,9.96,2.04
9.7000e-03,9.88,1.96
9.8000e-03,9.96,2.04
9.9000e-03,9.88,1.96
1.0000e-02,9.8,2.04
1.0100e-02,9.96,1.96
1.0200e-02,10.04,1.96
1.0300e-02,10.12,1.96
1.0400e-02,9.96,1.96
1.0500e-02,10.04,1.96
1.0600e-02,9.88,1.96
1.0700e-02,10.04,2.04
1.0800e-02,9.96,2.04
1.0900e-02,9.96,2.04
1.1000e-02,10.04,1.96
1.1100e-02,10.04,2.04
1.1200e-02,10.12,1.96
1.1300e-02,10.12,2.04
1.1400e-02,9.96,2.04
1.1500e-02,10.04,1.96
1.1600e-02,10.04,2.04
1.1700e-02,10.12,2.12
1.1800e-02,10.04,2.12
1.1900e-02,9.96,1.8
1.2000e-02,9.96,2.12
1.2100e-02,10.04,1.96
1.2200e-02,10.04,2.04
1.2300e-02,9.96,2.04
1.2400e-02,9.88,1.96
1.2500e-02,10.12,1.96
1.2600e-02,10.04,2.04
1.2700e-02,9.96,1.88
1.2800e-02,9.96,1.96
1.2900e-02,9.96,2.04
1.3000e-02,10.04,1.96
1.3100e-02,10.12,2.04
1.3200e-02,9.96,2.04
1.3300e-02,9.96,2.04
1.3400e-02,10.12,2.04
1.3500e-02,10.04,1.96
1.3600e-02,10.04,2.04
1.3700e-02,10.04,1.96
1.3800e-02,10.12,2.04
1.3900e-02,10.04,2.04
1.4000e-02,10.04,1.96
1.4100e-02,10.04,2.12
1.4200e-02,10.04,2.04
1.4300e-02,9.88,1.96
1.4400e-02,10.04,1.8
1.4500e-02,9.96,1.96
1.4600e-02,9.88,1.96
1.4700e-02,9.8,1.96
1.4800e-02,10.04,1.96
1.4900e-02,9.96,1.88
1.5000e-02,9.96,1.96
1.5100e-02,10.04,2.04
1.5200e-02,10.04,2.04
1.5300e-02,10.04,2.12
1.5400e-02,9.96,1.96
1.5500e-02,9.96,1.88
1.5600e-02,10.04,2.04
1.5700e-02,9.96,2.04
1.5800e-02,9.96,1.88
1.5900e-02,10.04,2.04
1.6000e-02,9.96,1.88
1.6100e-02,10.04,1.88
1.6200e-02,10.12,2.12
1.6300e-02,9.96,1.88
1.6400e-02,10.04,1.88
1.6500e-02,9.96,2.12
1.6600e-02,9.96,1.88
1.6700e-02,10.04,1.96
1.6800e-02,9.96,1.96
1.6900e-02,9.96,2.04
1.7000e-02,9.88,2.04
1.7100e-02,10.04,2.12
1.7200e-02,9.96,2.04
1.7300e-02,10.12,2.04
1.7400e-02,10.04,1.96
1.7500e-02,9.96,2.04
1.7600e-02,9.88,1.96
1.7700e-02,10.04,1.96
1.7800e-02,9.8,1.88
1.7900e-02,10.04,2.04
1.8000e-02,9.88,2.04
1.8100e-02,9.96,1.96
1.8200e-02,9.8,1.8
1.8300e-02,10.04,1.96
1.8400e-02,9.96,1.96
1.8500e-02,10.04,1.96
1.8600e-02,10.04,2.12
1.8700e-02,10.04,1.96
1.8800e-02,10.04,2.04
1.8900e-02,9.96,2.04
1.9000e-02,9.96,2.04
1.9100e-02,9.8,2.04
1.9200e-02,10.04,1.96
1.9300e-02,9.96,2.04
1.9400e-02,9.96,2.12
1.9500e-02,10.04,2.04
1.9600e-02,10.12,1.96
1.9700e-02,10.04,1.96
1.9800e-02,10.12,2.12
1.9900e-02,9.96,1.96
2.0000e-02,10.04,2.04
2.0100e-02,10.12,2.04
2.0200e-02,10.04,1.88
2.0300e-02,10.04,2.04
2.0400e-02,10.12,1.96
2.0500e-02,9.96,1.96
2.0600e-02,10.04,1.96
2.0700e-02,9.96,1.96
2.0800e-02,10.04,1.88
2.0900e-02,9.88,1.72
2.1000e-02,10.04,1.88
2.1100e-02,10.04,1.96
2.1200e-02,9.88,2.04
2.1300e-02,9.96,2.04
2.1400e-02,10.04,2.04
2.1500e-02,10.04,1.96
2.1600e-02,10.04,1.88
2.1700e-02,10.2,1.96
2.1800e-02,10.12,1.88
2.1900e-02,9.88,1.8
2.2000e-02,10.04,1.96
2.2100e-02,10.04,1.96
2.2200e-02,10.04,1.96
2.2300e-02,10.04,1.96
2.2400e-02,10.04,2.12
2.2500e-02,9.88,1.96
2.2600e-02,9.96,2.12
2.2700e-02,10.04,2.04
2.2800e-02,9.96,2.04
2.2900e-02,10.04,1.96
2.3000e-02,9.96,1.96
2.3100e-02,9.96,1.96
2.3200e-02,9.96,2.04
2.3300e-02,10.04,2.04
2.3400e-02,9.96,2.04
2.3500e-02,9.96,1.96
2.3600e-02,10.2,1.96
2.3700e-02,10.12,2.12
2.3800e-02,10.12,2.12
2.3900e-02,9.96,2.04
2.4000e-02,10.04,1.96
2.4100e-02,10.04,2.04
2.4200e-02,9.96,1.96
2.4300e-02,9.96,1.96
2.4400e-02,9.96,1.96
2.4500e-02,10.04,1.88
2.4600e-02,10.04,1.88
2.4700e-02,9.88,2.04
2.4800e-02,10.04,1.96
2.4900e-02,10.04,2.04
2.5000e-02,10.04,1.96
2.5100e-02,10.04,2.04
2.5200e-02,10.04,2.04
2.5300e-02,10.04,1.88
2.5400e-02,10.04,2.12
2.5500e-02,10.04,2.04
2.5600e-02,10.04,1.96
2.5700e-02,10.12,2.04
2.5800e-02,10.04,2.12
2.5900e-02,10.04,1.96
2.6000e-02,9.96,1.88
2.6100e-02,9.88,2.12
2.6200e-02,9.96,1.88
2.6300e-02,9.96,1.96
2.6400e-02,10.04,1.96
2.6500e-02,10.04,2.2
2.6600e-02,9.88,1.88
2.6700e-02,9.96,2.12
2.6800e-02,10.12,2.04
2.6900e-02,10.04,1.96
2.7000e-02,9.96,1.88
2.7100e-02,9.96,1.96
2.7200e-02,9.88,1.96
2.7300e-02,10.04,1.96
2.7400e-02,10.04,1.96
2.7500e-02,10.12,2.04
2.7600e-02,9.96,2.04
2.7700e-02,10.04,2.04
2.7800e-02,10.04,1.96
2.7900e-02,10.04,2.04
2.8000e-02,9.96,1.88
2.8100e-02,9.96,2.04
2.8200e-02,10.12,2.12
2.8300e-02,9.96,1.96
2.8400e-02,10.12,2.04
2.8500e-02,10.04,1.96
2.8600e-02,10.04,2.04
2.8700e-02,9.96,1.96
2.8800e-02,9.96,1.96
2.8900e-02,10.04,1.96
2.9000e-02,10.04,1.96
2.9100e-02,10.04,2.04
2.9200e-02,10.04,2.12
2.9300e-02,10.04,1.88
2.9400e-02,10.04,1.96
2.9500e-02,10.04,2.04
2.9600e-02,10.04,1.96
2.9700e-02,10.04,2.04
2.9800e-02,10.04,1.96
2.9900e-02,9.96,1.96
3.0000e-02,10.12,1.96
3.0100e-02,10.04,1.96
3.0200e-02,10.04,1.88
3.0300e-02,10.04,2.04
3.0400e-02,9.8,2.04
3.0500e-02,9.96,2.12
3.0600e-02,9.96,2.04
3.0700e-02,10.12,2.04
3.0800e-02,10.04,1.96
3.0900e-02,10.04,2.04
3.1000e-02,9.96,1.88
3.1100e-02,9.96,1.96
3.1200e-02,10.12,2.04
3.1300e-02,10.04,1.96
3.1400e-02,9.96,1.96
3.1500e-02,10.04,1.8
3.1600e-02,10.04,1.96
3.1700e-02,9.96,1.96
3.1800e-02,10.04,1.96
3.1900e-02,9.96,1.8
3.2000e-02,10.12,1.96
3.2100e-02,10.04,1.96
3.2200e-02,10.04,1.96
3.2300e-02,9.96,2.04
3.2400e-02,10.12,2.04
3.2500e-02,10.04,2.04
3.2600e-02,9.96,1.96
3.2700e-02,9.96,1.88
3.2800e-02,10.04,2.04
3.2900e-02,10.04,2.04
3.3000e-02,10.04,2.04
3.3100e-02,10.04,2.12
3.3200e-02,10.2,1.96
3.3300e-02,9.96,2.04
3.3400e-02,10.04,1.96
3.3500e-02,10.04,1.88
3.3600e-02,10.04,1.88
3.3700e-02,10.04,2.04
3.3800e-02,10.12,1.96
3.3900e-02,9.88,1.88
3.4000e-02,9.88,1.96
3.4100e-02,10.04,2.04
3.4200e-02,9.96,2.04
3.4300e-02,10.04,1.96
3.4400e-02,9.88,2.12
3.4500e-02,10.04,1.96
3.4600e-02,10.12,1.96
3.4700e-02,9.96,2.04
3.4800e-02,9.96,2.04
3.4900e-02,10.04,1.88
3.5000e-02,10.04,1.96
3.5100e-02,10.04,1.88
3.5200e-02,9.96,2.12
3.5300e-02,10.04,1.88
3.5400e-02,10.04,1.88
3.5500e-02,9.96,2.04
3.5600e-02,10.12,1.88
3.5700e-02,10.04,2.04
3.5800e-02,10.12,1.8
3.5900e-02,10.04,2.04
3.6000e-02,9.96,1.88
3.6100e-02,10.04,2.12
3.6200e-02,9.96,1.96
3.6300e-02,9.96,2.12
3.6400e-02,10.04,1.96
3.6500e-02,10.04,2.04
3.6600e-02,10.04,1.96
3.6700e-02,9.96,2.04
3.6800e-02,9.96,1.96
3.6900e-02,10.12,1.96
3.7000e-02,10.12,2.12
3.7100e-02,10.04,1.88
3.7200e-02,9.88,2.2
3.7300e-02,9.96,1.8
3.7400e-02,10.04,2.04
3.7500e-02,9.96,1.96
3.7600e-02,9.96,2.04
3.7700e-02,10.04,1.88
3.7800e-02,10.04,1.96
3.7900e-02,10.2,1.96
3.8000e-02,9.96,1.88
3.8100e-02,10.04,2.12
3.8200e-02,10.04,1.88
3.8300e-02,9.96,1.96
3.8400e-02,9.96,1.88
3.8500e-02,10.12,2.04
3.8600e-02,10.04,1.88
3.8700e-02,10.04,1.96
3.8800e-02,10.04,2.04
3.8900e-02,10.04,2.12
3.9000e-02,10.04,1.8
3.9100e-02,10.04,2.04
3.9200e-02,9.96,2.04
3.9300e-02,9.88,1.96
3.9400e-02,10.04,1.96
3.9500e-02,10.04,1.96
3.9600e-02,9.88,1.96
3.9700e-02,10.04,1.88
3.9800e-02,10.04,1.96
3.9900e-02,10.12,2.04
4.0000e-02,9.96,1.96
4.0100e-02,10.04,2.04
4.0200e-02,10.12,2.2
4.0300e-02,9.96,2.04
4.0400e-02,10.04,1.96
4.0500e-02,9.96,1.96
4.0600e-02,9.96,1.88
4.0700e-02,10.04,1.96
4.0800e-02,9.8,1.96
4.0900e-02,10.04,2.04
4.1000e-02,9.96,2.04
4.1100e-02,10.12,2.04
4.1200e-02,10.12,1.96
4.1300e-02,10.04,1.96
4.1400e-02,10.2,1.96
4.1500e-02,10.04,2.12
4.1600e-02,10.04,1.96
4.1700e-02,10.04,2.04
4.1800e-02,10.04,2.04
4.1900e-02,10.04,1.96
4.2000e-02,10.04,1.96
4.2100e-02,9.96,1.96
4.2200e-02,9.88,1.96
4.2300e-02,9.96,2.04
4.2400e-02,10.04,1.88
4.2500e-02,9.88,2.12
4.2600e-02,10.04,2.04
4.2700e-02,9.96,2.04
4.2800e-02,10.04,2.04
4.2900e-02,10.04,1.96
4.3000e-02,10.12,1.96
4.3100e-02,10.04,1.96
4.3200e-02,10.04,1.96
4.3300e-02,10.04,1.96
4.3400e-02,9.88,1.96
4.3500e-02,9.8,2.04
4.3600e-02,10.04,2.12
4.3700e-02,10.04,1.96
4.3800e-02,10.12,2.04
4.3900e-02,10.2,1.96
4.4000e-02,10.04,1.96
4.4100e-02,10.12,2.04
4.4200e-02,10.12,1.96
4.4300e-02,9.96,1.96
4.4400e-02,9.88,2.12
4.4500e-02,9.96,1.88
4.4600e-02,9.96,2.04
4.4700e-02,10.04,1.96
4.4800e-02,10.04,2.12
4.4900e-02,9.88,2.04
4.5000e-02,10.04,2.04
4.5100e-02,9.96,2.04
4.5200e-02,10.04,1.8
4.5300e-02,10.12,2.04
4.5400e-02,10.04,1.96
4.5500e-02,9.96,1.96
4.5600e-02,9.96,1.96
4.5700e-02,9.88,1.96
4.5800e-02,10.04,2.04
4.5900e-02,10.04,1.88
4.6000e-02,10.04,1.96
4.6100e-02,10.12,1.96
4.6200e-02,10.2,1.96
4.6300e-02,10.12,1.96
4.6400e-02,10.04,2.04
4.6500e-02,9.96,1.88
4.6600e-02,10.04,2.04
4.6700e-02,10.04,1.96
4.6800e-02,10.04,2.04
4.6900e-02,9.96,2.04
4.7000e-02,10.04,2.04
4.7100e-02,9.88,2.04
4.7200e-02,10.04,1.96
4.7300e-02,10.04,2.12
4.7400e-02,10.04,1.88
4.7500e-02,10.04,1.88
4.7600e-02,9.96,1.96
4.7700e-02,10.04,1.96
4.7800e-02,10.12,2.04
4.7900e-02,10.04,1.96
4.8000e-02,10.04,2.12
4.8100e-02,10.12,2.04
4.8200e-02,10.12,2.04
4.8300e-02,9.96,1.96
4.8400e-02,10.04,1.96
4.8500e-02,10.2,1.88
4.8600e-02,10.04,1.96
4.8700e-02,10.04,1.96
4.8800e-02,10.04,1.96
4.8900e-02,10.12,1.96
4.9000e-02,9.96,1.96
4.9100e-02,10.04,2.04
4.9200e-02,10.04,1.88
4.9300e-02,10.04,2.12
4.9400e-02,10.04,1.96
4.9500e-02,9.96,1.96
4.9600e-02,9.96,1.96
4.9700e-02,10.04,2.04
4.9800e-02,9.96,1.88
4.9900e-02,9.96,1.96
5.0000e-02,0.04,0.44
5.0100e-02,0.2,0.12
5.0200e-02,0.12,0.04
5.0300e-02,0.12,0.04
5.0400e-02,0.12,0.04
5.0500e-02,0.2,0.04
5.0600e-02,0.04,-0.04
5.0700e-02,-0.12,-0.04
5.0800e-02,0.12,0.12
5.0900e-02,0.04,-0.04
5.1000e-02,-0.04,0.04
5.1100e-02,0.04,0.04
5.1200e-02,-0.04,0.04
5.1300e-02,-0.04,-0.04
5.1400e-02,0.04,-0.04
5.1500e-02,0.2,0.12
5.1600e-02,0.04,0.04
5.1700e-02,0.04,-0.04
5.1800e-02,0.12,0.04
5.1900e-02,-0.04,0.04
5.2000e-02,0.04,-0.04
5.2100e-02,0.2,-0.04
5.2200e-02,0.12,0.04
5.2300e-02,0.12,0.04
5.2400e-02,-0.04,0.04
5.2500e-02,-0.04,0.04
5.2600e-02,0.12,0.12
5.2700e-02,0.04,-0.04
5.2800e-02,0.04,0.04
5.2900e-02,0.12,-0.04
5.3000e-02,0.12,0.12
5.3100e-02,0.04,-0.04
5.3200e-02,0.12,0.04
5.3300e-02,-0.04,-0.04
5.3400e-02,0.12,-0.04
5.3500e-02,-0.04,-0.04
5.3600e-02,-0.04,0.04
5.3700e-02,-0.04,-0.12
5.3800e-02,0.04,0.04
5.3900e-02,0.12,0.04
5.4000e-02,0.12,0.04
5.4100e-02,0.04,-0.04
5.4200e-02,0.04,0.04
5.4300e-02,0.2,0.04
5.4400e-02,0.04,0.04
5.4500e-02,0.12,-0.04
5.4600e-02,0.2,0.04
5.4700e-02,-0.04,-0.04
5.4800e-02,-0.04,0.04
5.4900e-02,0.04,-0.04
5.5000e-02,0.2,0.04
5.5100e-02,-0.04,0.04
5.5200e-02,0.04,0.12
5.5300e-02,0.04,-0.04
5.5400e-02,0.12,0.04
5.5500e-02,-0.04,0.2
5.5600e-02,-0.04,0.04
5.5700e-02,0.12,0.04
5.5800e-02,-0.04,0.04
5.5900e-02,0.12,-0.04
5.6000e-02,0.04,-0.04
5.6100e-02,0.12,0.04
5.6200e-02,0.12,0.04
5.6300e-02,0.04,0.04
5.6400e-02,0.04,0.04
5.6500e-02,-0.04,0.12
5.6600e-02,0.12,-0.04
5.6700e-02,-0.04,-0.04
5.6800e-02,-0.04,0.04
5.6900e-02,-0.04,-0.04
5.7000e-02,0.12,0.04
5.7100e-02,0.2,-0.04
5.7200e-02,0.12,0.04
5.7300e-02,-0.04,-0.04
5.7400e-02,0.2,0.12
5.7500e-02,0.12,-0.04
5.7600e-02,0.28,-0.04
5.7700e-02,0.04,0.04
5.7800e-02,0.12,-0.04
5.7900e-02,0.04,0.12
5.8000e-02,-0.04,-0.12
5.8100e-02,0.04,0.12
5.8200e-02,0.04,0.04
5.8300e-02,-0.04,-0.12
5.8400e-02,0.12,-0.04
5.8500e-02,0.2,0.2
5.8600e-02,0.04,0.04
5.8700e-02,0.04,0.04
5.8800e-02,0.2,0.04
5.8900e-02,-0.04,-0.04
5.9000e-02,0.04,0.04
5.9100e-02,-0.04,0.12
5.9200e-02,0.04,-0.04
5.9300e-02,0.12,-0.04
5.9400e-02,0.2,0.04
5.9500e-02,-0.04,0.04
